^C:\USERS\2J\DESKTOP\DIGI ASS\GIT\CS525\LAZYCOPY\LAZYCOPY\ARRAY.CPP|C:\USERS\2J\DESKTOP\DIGI ASS\GIT\CS525\LAZYCOPY\LAZYCOPY\DRIVER.CPP|C:\USERS\2J\DESKTOP\DIGI ASS\GIT\CS525\LAZYCOPY\LAZYCOPY\ELEMENT-FACTORY.CPP|C:\USERS\2J\DESKTOP\DIGI ASS\GIT\CS525\LAZYCOPY\LAZYCOPY\ELEMENT1.CPP|C:\USERS\2J\DESKTOP\DIGI ASS\GIT\CS525\LAZYCOPY\LAZYCOPY\ELEMENT2.CPP
C:\USERS\2J\DESKTOP\DIGI ASS\GIT\CS525\LAZYCOPY\LAZYCOPY\DEBUG\VC140.PDB
C:\USERS\2J\DESKTOP\DIGI ASS\GIT\CS525\LAZYCOPY\LAZYCOPY\DEBUG\VC140.IDB
C:\USERS\2J\DESKTOP\DIGI ASS\GIT\CS525\LAZYCOPY\LAZYCOPY\DEBUG\ARRAY.OBJ
C:\USERS\2J\DESKTOP\DIGI ASS\GIT\CS525\LAZYCOPY\LAZYCOPY\DEBUG\DRIVER.OBJ
C:\USERS\2J\DESKTOP\DIGI ASS\GIT\CS525\LAZYCOPY\LAZYCOPY\DEBUG\ELEMENT-FACTORY.OBJ
C:\USERS\2J\DESKTOP\DIGI ASS\GIT\CS525\LAZYCOPY\LAZYCOPY\DEBUG\ELEMENT1.OBJ
C:\USERS\2J\DESKTOP\DIGI ASS\GIT\CS525\LAZYCOPY\LAZYCOPY\DEBUG\ELEMENT2.OBJ
^C:\USERS\2J\DESKTOP\DIGI ASS\GIT\CS525\LAZYCOPY\LAZYCOPY\ARRAY.CPP
C:\USERS\2J\DESKTOP\DIGI ASS\GIT\CS525\LAZYCOPY\LAZYCOPY\DEBUG\VC140.PDB
C:\USERS\2J\DESKTOP\DIGI ASS\GIT\CS525\LAZYCOPY\LAZYCOPY\DEBUG\VC140.IDB
C:\USERS\2J\DESKTOP\DIGI ASS\GIT\CS525\LAZYCOPY\LAZYCOPY\DEBUG\ARRAY.OBJ
^C:\USERS\2J\DESKTOP\DIGI ASS\GIT\CS525\LAZYCOPY\LAZYCOPY\DRIVER.CPP
C:\USERS\2J\DESKTOP\DIGI ASS\GIT\CS525\LAZYCOPY\LAZYCOPY\DEBUG\VC140.PDB
^C:\USERS\2J\DESKTOP\DIGI ASS\GIT\CS525\LAZYCOPY\LAZYCOPY\ELEMENT-FACTORY.CPP
C:\USERS\2J\DESKTOP\DIGI ASS\GIT\CS525\LAZYCOPY\LAZYCOPY\DEBUG\VC140.PDB
^C:\USERS\2J\DESKTOP\DIGI ASS\GIT\CS525\LAZYCOPY\LAZYCOPY\ELEMENT1.CPP
C:\USERS\2J\DESKTOP\DIGI ASS\GIT\CS525\LAZYCOPY\LAZYCOPY\DEBUG\VC140.PDB
^C:\USERS\2J\DESKTOP\DIGI ASS\GIT\CS525\LAZYCOPY\LAZYCOPY\ELEMENT2.CPP
C:\USERS\2J\DESKTOP\DIGI ASS\GIT\CS525\LAZYCOPY\LAZYCOPY\DEBUG\VC140.PDB
^C:\USERS\2J\DESKTOP\DIGI ASS\GIT\CS525\LAZYCOPY\LAZYCOPY\ARRAY.CPP|C:\USERS\2J\DESKTOP\DIGI ASS\GIT\CS525\LAZYCOPY\LAZYCOPY\ELEMENT-FACTORY.CPP|C:\USERS\2J\DESKTOP\DIGI ASS\GIT\CS525\LAZYCOPY\LAZYCOPY\ELEMENT1.CPP
C:\USERS\2J\DESKTOP\DIGI ASS\GIT\CS525\LAZYCOPY\LAZYCOPY\DEBUG\VC140.PDB
C:\USERS\2J\DESKTOP\DIGI ASS\GIT\CS525\LAZYCOPY\LAZYCOPY\DEBUG\VC140.IDB
C:\USERS\2J\DESKTOP\DIGI ASS\GIT\CS525\LAZYCOPY\LAZYCOPY\DEBUG\ARRAY.OBJ
C:\USERS\2J\DESKTOP\DIGI ASS\GIT\CS525\LAZYCOPY\LAZYCOPY\DEBUG\ELEMENT-FACTORY.OBJ
C:\USERS\2J\DESKTOP\DIGI ASS\GIT\CS525\LAZYCOPY\LAZYCOPY\DEBUG\ELEMENT1.OBJ
