^C:\USERS\2J\DESKTOP\DIGI ASS\GIT\CS525\FP8\FP8\DEBUG\SOURCE.OBJ
C:\USERS\2J\DESKTOP\DIGI ASS\GIT\CS525\FP8\DEBUG\FP8.ILK
C:\USERS\2J\DESKTOP\DIGI ASS\GIT\CS525\FP8\DEBUG\FP8.EXE
C:\USERS\2J\DESKTOP\DIGI ASS\GIT\CS525\FP8\DEBUG\FP8.PDB
