^C:\USERS\2J\DESKTOP\DIGI ASS\GIT\CS525\FNTEMP\DRIVER.CPP
/c /ZI /nologo /W3 /WX- /sdl /Od /Oy- /D _MBCS /Gm /EHsc /RTC1 /MDd /GS /fp:precise /Zc:wchar_t /Zc:forScope /Zc:inline /Fo"DEBUG\\" /Fd"DEBUG\VC140.PDB" /Gd /TP /analyze- C:\USERS\2J\DESKTOP\DIGI ASS\GIT\CS525\FNTEMP\DRIVER.CPP
^C:\USERS\2J\DESKTOP\DIGI ASS\GIT\CS525\FNTEMP\FUNCTIONS.CPP
/c /ZI /nologo /W3 /WX- /sdl /Od /Oy- /D _MBCS /Gm /EHsc /RTC1 /MDd /GS /fp:precise /Zc:wchar_t /Zc:forScope /Zc:inline /Fo"DEBUG\\" /Fd"DEBUG\VC140.PDB" /Gd /TP /analyze- C:\USERS\2J\DESKTOP\DIGI ASS\GIT\CS525\FNTEMP\FUNCTIONS.CPP
