^C:\USERS\2J\DOCUMENTS\VISUAL STUDIO 2015\PROJECTS\VECTORCPP\VECTORCPP\DRIVER.CPP
/c /ZI /nologo /W2 /WX- /sdl /Od /Oy- /D _MBCS /Gm /EHsc /RTC1 /MDd /GS /fp:precise /Zc:wchar_t /Zc:forScope /Zc:inline /Fo"DEBUG\\" /Fd"DEBUG\VC140.PDB" /Gd /TP /analyze- C:\USERS\2J\DOCUMENTS\VISUAL STUDIO 2015\PROJECTS\VECTORCPP\VECTORCPP\DRIVER.CPP
^C:\USERS\2J\DOCUMENTS\VISUAL STUDIO 2015\PROJECTS\VECTORCPP\VECTORCPP\VECTOR.CPP
/c /ZI /nologo /W2 /WX- /sdl /Od /Oy- /D _MBCS /Gm /EHsc /RTC1 /MDd /GS /fp:precise /Zc:wchar_t /Zc:forScope /Zc:inline /Fo"DEBUG\\" /Fd"DEBUG\VC140.PDB" /Gd /TP /analyze- C:\USERS\2J\DOCUMENTS\VISUAL STUDIO 2015\PROJECTS\VECTORCPP\VECTORCPP\VECTOR.CPP
