^C:\USERS\2J\DESKTOP\DIGI ASS\GIT\CS525\LAZYCOPY\LAZYCOPY\LAZYCOPY\DEBUG\ARRAY.OBJ|C:\USERS\2J\DESKTOP\DIGI ASS\GIT\CS525\LAZYCOPY\LAZYCOPY\LAZYCOPY\DEBUG\DRIVER.OBJ|C:\USERS\2J\DESKTOP\DIGI ASS\GIT\CS525\LAZYCOPY\LAZYCOPY\LAZYCOPY\DEBUG\ELEMENT-FACTORY.OBJ|C:\USERS\2J\DESKTOP\DIGI ASS\GIT\CS525\LAZYCOPY\LAZYCOPY\LAZYCOPY\DEBUG\ELEMENT1.OBJ|C:\USERS\2J\DESKTOP\DIGI ASS\GIT\CS525\LAZYCOPY\LAZYCOPY\LAZYCOPY\DEBUG\ELEMENT2.OBJ
C:\USERS\2J\DESKTOP\DIGI ASS\GIT\CS525\LAZYCOPY\LAZYCOPY\DEBUG\LAZYCOPY.ILK
C:\USERS\2J\DESKTOP\DIGI ASS\GIT\CS525\LAZYCOPY\LAZYCOPY\DEBUG\LAZYCOPY.EXE
C:\USERS\2J\DESKTOP\DIGI ASS\GIT\CS525\LAZYCOPY\LAZYCOPY\DEBUG\LAZYCOPY.PDB
