^C:\USERS\SUJAY.SHAH\DESKTOP\GIT\CS525\VECTORCPP\VECTORCPP\X64\DEBUG\DRIVER.OBJ|C:\USERS\SUJAY.SHAH\DESKTOP\GIT\CS525\VECTORCPP\VECTORCPP\X64\DEBUG\VECTOR.OBJ
C:\USERS\SUJAY.SHAH\DESKTOP\GIT\CS525\VECTORCPP\X64\DEBUG\VECTORCPP.ILK
C:\USERS\SUJAY.SHAH\DESKTOP\GIT\CS525\VECTORCPP\X64\DEBUG\VECTORCPP.EXE
C:\USERS\SUJAY.SHAH\DESKTOP\GIT\CS525\VECTORCPP\X64\DEBUG\VECTORCPP.PDB
